
 Person Cards:  10[hea] 5[dia] q[clu]
 Dealer Cards:  j[hea] 3[clu]
 Person Cards:  q[hea] 4[spa] 10[spa]
 Dealer Cards:  5[clu] 8[dia]
 Person Cards:  q[hea] 3[spa] 3[dia]
 Dealer Cards:  2[clu] k[dia] q[dia]
 Person Cards:  5[clu] k[hea] j[spa]
 Dealer Cards:  8[clu] 10[spa]
 Person Cards:  4[clu] 9[clu] 9[spa]
 Dealer Cards:  q[hea] a[hea]
 Person Cards:  k[hea] a[clu]
 Dealer Cards:  j[hea] 7[dia]
 Person Cards:  j[hea] a[spa]
 Dealer Cards:  2[dia] 3[hea]
 Person Cards:  7[dia] q[dia] 6[clu]
 Dealer Cards:  4[hea] 7[hea]
 Person Cards:  2[spa] 9[dia] 4[clu] j[dia]
 Dealer Cards:  10[clu] 5[dia]
 Person Cards:  4[spa] 7[dia] k[hea]
 Dealer Cards:  q[hea] 5[hea]
 Person Cards:  2[hea] 3[dia]
 Dealer Cards:  3[clu] 2[spa] 6[clu]
 Person Cards:  j[clu] 8[hea]
 Dealer Cards:  q[clu] 4[spa] 4[dia] 5[spa]
 Person Cards:  4[dia] 3[clu]
 Dealer Cards:  9[spa] 7[spa]
 Person Cards:  5[clu] 3[dia] 10[dia] q[hea]
 Dealer Cards:  8[hea] 4[hea]
 Person Cards:  7[clu] a[spa] k[dia] 10[clu]
 Dealer Cards:  6[clu] q[hea]
 Person Cards:  5[dia] 9[spa] 9[clu]
 Dealer Cards:  a[spa] 10[spa]
 Person Cards:  9[spa] 2[hea] 6[dia]
 Dealer Cards:  3[hea] k[spa] 3[clu] 6[clu]
 Person Cards:  q[dia] 7[dia]
 Dealer Cards:  9[hea] 3[spa] 3[dia] 3[clu]
 Person Cards:  k[dia] k[hea]
 Dealer Cards:  2[hea] 8[clu] 9[spa] 8[dia]
 Person Cards:  k[dia] 2[spa] 7[clu]
 Dealer Cards:  k[spa] 9[hea] 5[spa]
 Person Cards:  a[clu] 8[hea]
 Dealer Cards:  7[dia] 8[clu] 5[hea]
 Person Cards:  2[clu] k[dia] 4[hea]
 Dealer Cards:  j[hea] 6[clu] 10[clu]